1 1 1/F
1 1 2/F
1 1 3/F
1 1 4/F
1 1 5/F
1 1 6/F
1 1 7/F
1 1 8/F
1 1 9/F
1 1 0/F
1 1 (/F
1 1 )/F
1 2 (/F
2 2 1/F
2 2 2/F
2 2 3/F
2 2 4/F
2 2 5/F
2 2 6/F
2 2 7/F
2 2 8/F
2 2 9/F
2 2 (/F
2 2 )/F
2 3 0/F
3 2 1/F
3 2 2/F
3 2 3/F
3 2 4/F
3 2 5/F
3 2 6/F
3 2 7/F
3 2 8/F
3 2 9/F
3 2 (/F
3 2 )/F
3 4 0/F
4 4 0/F
4 2 /F
4 2 1/F
4 2 2/F
4 2 3/F
4 2 4/F
4 2 5/F
4 2 6/F
4 2 8/F
4 2 9/F
4 2 (/F
4 2 )/F
5 5 1/F
5 5 2/F
5 5 3/F
5 5 4/F
5 5 5/F
5 5 6/F
5 5 7/F
5 5 8/F
5 5 9/F
5 5 0/F
5 5 (/F
5 5 )/F
6 6 1/T
6 6 2/F
6 6 3/F
6 6 4/F
6 6 5/F
6 6 6/F
6 6 7/F
6 6 8/F
6 6 9/F
6 6 0/F
6 6 (/F
6 6 )/F
4 5 7/F
5 6 )/T